[gd_scene format=3 uid="uid://chwf61qpn2sqw"]

[node name="Panel" type="Panel"]
self_modulate = Color(1, 1, 1, 0)
custom_minimum_size = Vector2(400, 120)
mouse_filter = 1

[node name="post-it_anchor1" type="Node2D" parent="."]
position = Vector2(105, 57)
