[gd_resource type="StandardMaterial3D" load_steps=5 format=3 uid="uid://dk0tihehhbqo0"]

[ext_resource type="Texture2D" uid="uid://qg7mgh221y88" path="res://base-environments/youth_room/import/textures/poster_albedo.png" id="1_ob15n"]
[ext_resource type="Texture2D" uid="uid://dktehwplekb5u" path="res://base-environments/youth_room/import/textures/posters.png" id="2_lc2m7"]
[ext_resource type="Texture2D" uid="uid://beuj6qvpn5van" path="res://base-environments/youth_room/import/textures/poster_normals.png" id="3_oqhkg"]
[ext_resource type="Texture2D" uid="uid://c574keac7hnae" path="res://base-environments/youth_room/import/textures/poster_roughness.png" id="4_ki8vu"]

[resource]
resource_name = "book-cover"
cull_mode = 2
vertex_color_use_as_albedo = true
albedo_texture = ExtResource("1_ob15n")
roughness_texture = ExtResource("4_ki8vu")
normal_enabled = true
normal_texture = ExtResource("3_oqhkg")
detail_enabled = true
detail_uv_layer = 1
detail_albedo = ExtResource("2_lc2m7")
