[gd_resource type="StandardMaterial3D" load_steps=3 format=3 uid="uid://dl2cx8e6l2wwj"]

[ext_resource type="Texture2D" uid="uid://k6a1jutqj4b6" path="res://base-environments/youth_room/import/textures/CarpetFluffy_baseColor.jpeg" id="1_61ey6"]
[ext_resource type="Texture2D" uid="uid://cogp7xyo3v0p6" path="res://base-environments/youth_room/import/textures/CarpetFluffy_normal.png" id="2_5l5dn"]

[resource]
resource_name = "CarpetFluffy"
cull_mode = 2
vertex_color_use_as_albedo = true
albedo_color = Color(0.117647, 0.870588, 0.968627, 1)
albedo_texture = ExtResource("1_61ey6")
metallic_specular = 0.36
normal_enabled = true
normal_texture = ExtResource("2_5l5dn")
rim_enabled = true
rim = 0.3
rim_tint = 1.0
subsurf_scatter_strength = 0.49
backlight_enabled = true
backlight = Color(0.27451, 0.447059, 0.568627, 1)
