[gd_resource type="StandardMaterial3D" format=3 uid="uid://bv1tjnn70kxv8"]

[resource]
resource_name = "door"
cull_mode = 2
vertex_color_use_as_albedo = true
albedo_color = Color(0.882082, 0.839278, 0.809231, 1)
roughness = 0.5
