[gd_resource type="StandardMaterial3D" format=3 uid="uid://c4kxc3y2k6jeb"]

[resource]
resource_name = "lack"
vertex_color_use_as_albedo = true
albedo_color = Color(0.906332, 0.848989, 0.709612, 1)
roughness = 0.168712
