[gd_resource type="StandardMaterial3D" load_steps=3 format=3 uid="uid://dy7w06asd3ypn"]

[ext_resource type="Texture2D" uid="uid://chqflvtnirixw" path="res://base-environments/youth_room/import/textures/weed_plant_02_diff_1k.jpg" id="1_josl2"]
[ext_resource type="Texture2D" uid="uid://ocl45llk3qnp" path="res://base-environments/youth_room/import/textures/weed_plant_02_nor_gl_1k.png" id="2_pu8km"]

[resource]
resource_name = "weed_plant_02.001"
transparency = 2
alpha_scissor_threshold = 0.5
alpha_antialiasing_mode = 0
cull_mode = 2
vertex_color_use_as_albedo = true
albedo_texture = ExtResource("1_josl2")
roughness = 0.6
normal_enabled = true
normal_texture = ExtResource("2_pu8km")
subsurf_scatter_strength = 0.64
backlight_enabled = true
backlight = Color(0.501961, 0.603922, 0.298039, 1)
